<svg width="16" height="10" viewBox="0 0 16 10" xmlns="http://www.w3.org/2000/svg"
     xmlns:xlink="http://www.w3.org/1999/xlink">
    <title>Oval 3</title>
    <defs>
        <path id="a" d="M90 90h1180v2671H90z"/>
        <mask id="b" x="0" y="0" width="1180" height="2671" fill="#fff">
            <use xlink:href="#a"/>
        </mask>
    </defs>
    <g transform="translate(-856 -384)" stroke="#979797" fill="none" fill-rule="evenodd">
        <g transform="translate(856 382)">
            <path d="M8 11c3.866 0 7-4 7-4s-3.134-4-7-4-7 4-7 4 3.134 4 7 4z" fill="#FFF"/>
            <circle cx="8" cy="7" r="2"/>
        </g>
        <use mask="url(#b)" stroke-width="2" xlink:href="#a"/>
    </g>
</svg>